.Xil/Vivado-1453168-phys-villain.washington.edu/hw_ila_data_1/zip_work/waveform.vcd
$date
        2021-May-26 15:10:54
$end
$version
        Vivado v2019.2 (64-bit)
$end
$timescale
        1ps
$end
$scope module dut $end
$var reg 1 " clk_vector $end
$var reg 8 # trigger_adc_buf_in [7:0] $end
$var reg 1 + trig_vector $end
$var reg 9 , diff [8:0] $end
$var reg 8 5 prev_frame_adc [7:0] $end
$var reg 1 = _TRIGGER $end
$var reg 1 > _WINDOW $end
$var reg 1 ? _GAP $end
$upscope $end
$enddefinitions $end
#0
$dumpvars
1"
b10010100 #
0+
b0 ,
b10010100 5
0=
1>
0?
$end
#1
0"
#4
1"
#6
0"
#7
b10010011 #
#9
1"
#11
0"
#12
b10010100 #
b1 ,
#14
1"
#16
0"
#17
b0 ,
#19
1"
#21
0"
#22
b10010011 5
#24
1"
#26
0"
#27
b111111111 ,
b10010100 5
#29
1"
#31
0"
#32
b0 ,
#34
1"
#36
0"
#39
1"
#41
0"
#42
b10010011 #
#44
1"
#46
0"
#47
b10010100 #
b1 ,
#49
1"
#51
0"
#52
b0 ,
#54
1"
#56
0"
#59
1"
#61
0"
#62
b10010011 5
#64
1"
#66
0"
#67
b111111111 ,
b10010100 5
#69
1"
#71
0"
#72
b0 ,
#74
1"
#76
0"
#79
1"
#81
0"
#82
b10010011 #
#84
1"
#86
0"
#87
b10010100 #
b1 ,
#89
1"
#91
0"
#92
b0 ,
#94
1"
#96
0"
#99
1"
#101
0"
#102
b10010011 5
#104
1"
#106
0"
#107
b111111111 ,
b10010100 5
#109
1"
#111
0"
#112
b0 ,
#114
1"
#116
0"
#119
1"
#121
0"
#122
b10010011 #
b10010011 5
#124
1"
#126
0"
#127
b10010100 #
b10010100 5
#129
1"
#131
0"
#134
1"
#136
0"
#139
1"
#141
0"
#144
1"
#146
0"
#149
1"
#151
0"
#154
1"
#156
0"
#159
1"
#161
0"
#162
b10010011 5
#164
1"
#166
0"
b100 ,
#167
b111111111 ,
b10010100 5
#169
1"
#171
0"
b111110111 ,
#172
b0 ,
#174
1"
#176
0"
#179
1"
#181
0"
#184
1"
#186
0"
#189
1"
#191
0"
#194
1"
#196
0"
#199
1"
#201
0"
#204
1"
#206
0"
#209
1"
#211
0"
#214
1"
#216
0"
#219
1"
#221
0"
#224
1"
#226
0"
#229
1"
#231
0"
#234
1"
#236
0"
#239
1"
#241
0"
#244
1"
#246
0"
#247
b10010011 #
#249
1"
#251
0"
#252
b10010100 #
b1 ,
#254
1"
#256
0"
#257
b0 ,
#259
1"
#261
0"
#264
1"
#266
0"
#269
1"
#271
0"
#274
1"
#276
0"
#279
1"
#281
0"
#282
b10010011 #
#284
1"
#286
0"
#287
b10010100 #
b1 ,
#289
1"
#291
0"
#292
b0 ,
#294
1"
#296
0"
#299
1"
#301
0"
#304
1"
#306
0"
#309
1"
#311
0"
#314
1"
#316
0"
#319
1"
#321
0"
#324
1"
#326
0"
#329
1"
#331
0"
#334
1"
#336
0"
#339
1"
#341
0"
#342
b10010011 5
#344
1"
#346
0"
b100 ,
#347
b111111111 ,
b10010100 5
#349
1"
#351
0"
b111110011 ,
#352
b0 ,
#354
1"
#356
0"
#359
1"
#361
0"
#364
1"
#366
0"
#369
1"
#371
0"
#374
1"
#376
0"
#379
1"
#381
0"
#384
1"
#386
0"
#389
1"
#391
0"
#394
1"
#396
0"
#399
1"
#401
0"
#404
1"
#406
0"
#409
1"
#411
0"
#414
1"
#416
0"
#419
1"
#421
0"
#424
1"
#426
0"
#429
1"
#431
0"
#434
1"
#436
0"
#439
1"
#441
0"
#442
b10010011 #
#444
1"
#446
0"
#447
b10010100 #
b1 ,
#449
1"
#451
0"
#452
b0 ,
#454
1"
#456
0"
#459
1"
#461
0"
#462
b10010011 5
#464
1"
#466
0"
b100 ,
#467
b111111111 ,
b10010100 5
#469
1"
#471
0"
b111110011 ,
#472
b0 ,
#474
1"
#476
0"
#479
1"
#481
0"
#482
b10010011 #
#484
1"
#486
0"
#487
b10010100 #
b1 ,
#489
1"
#491
0"
#492
b0 ,
#494
1"
#496
0"
#499
1"
#501
0"
#504
1"
#506
0"
#509
1"
#511
0"
#514
1"
#516
0"
#519
1"
#521
0"
#522
b10010011 5
#524
1"
#526
0"
b100 ,
#527
b111111111 ,
b10010100 5
#529
1"
#531
0"
b111110011 ,
#532
b0 ,
#534
1"
#536
0"
#539
1"
#541
0"
#542
b10010011 #
#544
1"
#546
0"
#547
b10010100 #
b1 ,
#549
1"
#551
0"
#552
b0 ,
#554
1"
#556
0"
#559
1"
#561
0"
#564
1"
#566
0"
#569
1"
#571
0"
#574
1"
#576
0"
#579
1"
#581
0"
#584
1"
#586
0"
#589
1"
#591
0"
#594
1"
#596
0"
#599
1"
#601
0"
#604
1"
#606
0"
#609
1"
#611
0"
#614
1"
#616
0"
#619
1"
#621
0"
#624
1"
#626
0"
#629
1"
#631
0"
#634
1"
#636
0"
#639
1"
#641
0"
#642
b10010011 5
#644
1"
#646
0"
b1100 ,
#647
b111111111 ,
b10010100 5
#649
1"
#651
0"
b111110011 ,
#652
b0 ,
#654
1"
#656
0"
#659
1"
#661
0"
#664
1"
#666
0"
#669
1"
#671
0"
#674
1"
#676
0"
#679
1"
#681
0"
#684
1"
#686
0"
#689
1"
#691
0"
#694
1"
#696
0"
#699
1"
#701
0"
#702
b10010011 #
#704
1"
#706
0"
#707
b10010100 #
b1 ,
#709
1"
#711
0"
#712
b0 ,
#714
1"
#716
0"
#719
1"
#721
0"
#724
1"
#726
0"
#729
1"
#731
0"
#734
1"
#736
0"
#739
1"
#741
0"
#744
1"
#746
0"
#749
1"
#751
0"
#754
1"
#756
0"
#759
1"
#761
0"
#764
1"
#766
0"
#767
b10010011 #
#769
1"
#771
0"
#772
b10010100 #
b1 ,
#774
1"
#776
0"
#777
b0 ,
#779
1"
#781
0"
#784
1"
#786
0"
#789
1"
#791
0"
#794
1"
#796
0"
#799
1"
#801
0"
#802
b10010011 #
#804
1"
#806
0"
#807
b10010100 #
b1 ,
#809
1"
#811
0"
#812
b0 ,
#814
1"
#816
0"
#819
1"
#821
0"
#824
1"
#826
0"
#829
1"
#831
0"
#834
1"
#836
0"
#839
1"
#841
0"
#844
1"
#846
0"
#849
1"
#851
0"
#854
1"
#856
0"
#859
1"
#861
0"
#864
1"
#866
0"
#867
b10010011 #
#869
1"
#871
0"
#872
b10010100 #
b1 ,
#874
1"
#876
0"
#877
b0 ,
